[
    {
        "Background": "Black",
        "Body": "Pancakes",
        "Mouth": "No Teeth",
        "Eyes": "Squint",
        "Headwear": "Test",
        "Accessories": "None",
        "tokenId": 0
    },
    {
        "Background": "Purple",
        "Body": "Metal Plates",
        "Mouth": "Smile",
        "Eyes": "Squint",
        "Headwear": "Test",
        "Accessories": "None",
        "tokenId": 1
    },
    {
        "Background": "White",
        "Body": "Pancakes",
        "Mouth": "Sad",
        "Eyes": "Squint",
        "Headwear": "Test",
        "Accessories": "Vest",
        "tokenId": 2
    },
    {
        "Background": "Purple",
        "Body": "Metal Plates",
        "Mouth": "Sad",
        "Eyes": "Happy",
        "Headwear": "Test",
        "Accessories": "Vest",
        "tokenId": 3
    },
    {
        "Background": "White",
        "Body": "Metal Plates",
        "Mouth": "Sad",
        "Eyes": "Happy",
        "Headwear": "Test",
        "Accessories": "Necklace",
        "tokenId": 4
    },
    {
        "Background": "Black",
        "Body": "Metal Plates",
        "Mouth": "Sad",
        "Eyes": "Happy",
        "Headwear": "Test",
        "Accessories": "Necklace",
        "tokenId": 5
    },
    {
        "Background": "Purple",
        "Body": "Pancakes",
        "Mouth": "Sad",
        "Eyes": "Happy",
        "Headwear": "Normal",
        "Accessories": "Vest",
        "tokenId": 6
    },
    {
        "Background": "Black",
        "Body": "Big Chest",
        "Mouth": "No Teeth",
        "Eyes": "Squint",
        "Headwear": "Test",
        "Accessories": "Vest",
        "tokenId": 7
    },
    {
        "Background": "White",
        "Body": "Pancakes",
        "Mouth": "Smile",
        "Eyes": "Squint",
        "Headwear": "Other",
        "Accessories": "None",
        "tokenId": 8
    },
    {
        "Background": "Purple",
        "Body": "Metal Plates",
        "Mouth": "Sad",
        "Eyes": "Squint",
        "Headwear": "Test",
        "Accessories": "None",
        "tokenId": 9
    }
]